ID,NAME,TYPE_1,TYPE_2,TOTAL,HP,ATTACK,DEFENSE,SP_ATTACK,SP.DEF,SPEED
Bulbasaur	GRASS	POISON	318	45	49	49	65	65	45
Ivysaur	GRASS POISON	405	60	62	63	80	80	60
Venusaur	GRASS POISON	525	80	82	83	100	100	80
Venusaur Mega Venusaur	GRASS POISON	625	80	100	123	122	120	80
Charmander	FIRE 309	39	52	43	60	50	65
Charmeleon	FIRE 405	58	64	58	80	65	80
Charizard	FIRE FLYING	534	78	84	78	109	85	100
Charizard Mega Charizard X	FIRE DRAGON	634	78	130	111	130	85	100
Mega Charizard Y	FIRE FLYING	634	78	104	78	159	115	100
Squirtle	WATER 314	44	48	65	50	64	43
Wartortle	WATER 405	59	63	80	65	80	58
Blastoise	WATER 530	79	83	100	85	105	78
Blastoise Mega Blastoise	WATER 630	79	103	120	135	115	78
Caterpie	BUG 195	45	30	35	20	20	45
Metapod	BUG 205	50	20	55	25	25	30
Butterfree	BUG FLYING	395	60	45	50	90	80	70
Weedle	BUG POISON	195	40	35	30	20	20	50
Kakuna	BUG POISON	205	45	25	50	25	25	35
Beedrill	BUG POISON	395	65	90	40	45	80	75
Beedrill Mega Beedrill	BUG POISON	495	65	150	40	15	80	145
Pidgey	NORMAL FLYING	251	40	45	40	35	35	56
Pidgeotto	NORMAL FLYING	349	63	60	55	50	50	71
Pidgeot	NORMAL FLYING	479	83	80	75	70	70	101
Pidgeot Mega Pidgeot	NORMAL FLYING	579	83	80	80	135	80	121
Rattata icon019	Rattata	NORMAL 253	30	56	35	25	35	72
Rattata Alolan Rattata	DARK NORMAL	253	30	56	35	25	35	72
Raticate	NORMAL 413	55	81	60	50	70	97
Raticate Alolan Raticate	DARK NORMAL	413	75	71	70	40	80	77
Spearow	NORMAL FLYING	262	40	60	30	31	31	70
Fearow	NORMAL FLYING	442	65	90	65	61	61	100 
Ekans	POISON 288	35	60	44	40	54	55
Arbok	POISON 448	60	95	69	65	79	80
Pikachu	ELECTRIC 320	35	55	40	50	50	90
Pikachu Partner Pikachu	ELECTRIC 430	45	80	50	75	60	120
Raichu	ELECTRIC 485	60	90	55	90	80	110 	Raichu
Alolan Raichu	ELECTRIC PSYCHIC	485	60	85	50	95	85	110
Sandshrew	GROUND 300	50	75	85	20	30	40
Sandshrew Alolan Sandshrew	ICE STEEL	300	50	75	90	10	35	40
Sandslash	GROUND 450	75	100	110	45	55	65
Sandslash Alolan Sandslash	ICE STEEL	450	75	100	120	25	65	65
Nidoran♀	POISON 275	55	47	52	40	40	41
Nidorina	POISON 365	70	62	67	55	55	56
Nidoqueen	POISON GROUND	505	90	92	87	75	85	76
Nidoran♂	POISON 273	46	57	40	40	40	50
Nidorino	POISON 365	61	72	57	55	55	65
Nidoking	POISON GROUND	505	81	102	77	85	75	85
Clefairy	FAIRY 323	70	45	48	60	65	35
Clefable	FAIRY 483	95	70	73	95	90	60
Vulpix	FIRE 299	38	41	40	50	65	65
Vulpix Alolan Vulpix	ICE 299	38	41	40	50	65	65
Ninetales	FIRE 505	73	76	75	81	100	100
Ninetales Alolan Ninetales	ICE FAIRY	505	73	67	75	81	100	109
Jigglypuff	NORMAL FAIRY	270	115	45	20	45	25	20
Wigglytuff	NORMAL FAIRY	435	140	70	45	85	50	45
Zubat	POISON FLYING	245	40	45	35	30	40	55
Golbat	POISON FLYING	455	75	80	70	65	75	90
Oddish	GRASS POISON	320	45	50	55	75	65	30
Gloom	GRASS POISON	395	60	65	70	85	75	40
Vileplume	GRASS POISON	490	75	80	85	110	90	50
Paras	BUG GRASS	285	35	70	55	45	55	25
Parasect	BUG GRASS	405	60	95	80	60	80	30
Venonat	BUG POISON	305	60	55	50	40	55	45
Venomoth	BUG POISON	450	70	65	60	90	75	90
Diglett	GROUND 265	10	55	25	35	45	95
Diglett Alolan Diglett	GROUND STEEL	265	10	55	30	35	45	90
Dugtrio	GROUND 425	35	100	50	50	70	120
Dugtrio Alolan Dugtrio	GROUND STEEL	425	35	100	60	50	70	110
Meowth	NORMAL 290	40	45	35	40	40	90
Alolan Meowth 	Meowth Alolan Meowth	DARK 290	40	35	35	50	40	90 	
Persian	NORMAL 440	65	70	60	65	65	115	
Persian Alolan Persian	DARK 440	65	60	60	75	65	115
Psyduck	WATER 320	50	52	48	65	50	55
Golduck	WATER 500	80	82	78	95	80	85
Mankey	FIGHTING 305	40	80	35	35	45	70
Primeape	FIGHTING 455	65	105	60	60	70	95
Growlithe	FIRE 350	55	70	45	70	50	60
Arcanine	FIRE 555	90	110	80	100	80	95
Poliwag	WATER 300	40	50	40	40	40	90
Poliwhirl	WATER 385	65	65	65	50	50	90
Poliwrath	WATER FIGHTING	510	90	95	95	70	90	70
Abra	PSYCHIC 310	25	20	15	105	55	90
Kadabra	PSYCHIC 400	40	35	30	120	70	105
Alakazam	PSYCHIC 500	55	50	45	135	95	120
Alakazam Mega Alakazam	PSYCHIC 600	55	50	65	175	105	150
Machop	FIGHTING 305	70	80	50	35	35	35
Machoke	FIGHTING 405	80	100	70	50	60	45
Machamp	FIGHTING 505	90	130	80	65	85	55
Bellsprout	GRASS POISON	300	50	75	35	70	30	40
Weepinbell	GRASS POISON	390	65	90	50	85	45	55
Victreebel	GRASS POISON	490	80	105	65	100	70	70
Tentacool	WATER POISON	335	40	40	35	50	100	70 
Tentacruel	WATER POISON	515	80	70	65	80	120	100
Geodude	ROCK GROUND	300	40	80	100	30	30	20
Geodude Alolan Geodude	ROCK ELECTRIC	300	40	80	100	30	30	20
Graveler	ROCK GROUND	390	55	95	115	45	45	35
Graveler Alolan Graveler	ROCK ELECTRIC	390	55	95	115	45	45	35	
Golem	ROCK GROUND	495	80	120	130	55	65	45
Golem Alolan Golem	ROCK ELECTRIC	495	80	120	130	55	65	45
Ponyta	FIRE 410	50	85	55	65	65	90
Rapidash	FIRE 500	65	100	70	80	80	105
Slowpoke	WATER PSYCHIC	315	90	65	65	40	40	15
Slowbro 	Slowbro	WATER PSYCHIC	490	95	75	110	100	80	30
Slowbro Mega Slowbro	WATER PSYCHIC	590	95	75	180	130	80	30
Magnemite 	Magnemite	ELECTRIC STEEL	325	25	35	70	95	55	45
Magneton	ELECTRIC STEEL	465	50	60	95	120	70	70
Farfetch'd	NORMAL FLYING	377	52	90	55	58	62	60
Doduo	NORMAL FLYING	310	35	85	45	35	35	75
Dodrio	NORMAL FLYING	470	60	110	70	60	60	110
Seel 	Seel	WATER 325	65	45	55	45	70	45
Dewgong	WATER ICE	475	90	70	80	70	95	70
Grimer	POISON 325	80	80	50	40	50	25
Grimer Alolan Grimer	POISON DARK	325	80	80	50	40	50	25 	
Muk	POISON 500	105	105	75	65	100	50	
Muk Alolan Muk	POISON DARK	500	105	105	75	65	100	50
Shellder	WATER 305	30	65	100	45	25	40
Cloyster	WATER ICE	525	50	95	180	85	45	70
Gastly 	Gastly	GHOST POISON	310	30	35	30	100	35	80
Haunter	GHOST POISON	405	45	50	45	115	55	95
Gengar	GHOST POISON	500	60	65	60	130	75	110
Gengar Mega Gengar	GHOST POISON	600	60	65	80	170	95	130
Onix	ROCK GROUND	385	35	45	160	30	45	70
Drowzee	PSYCHIC 328	60	48	45	43	90	42
Hypno	PSYCHIC 483	85	73	70	73	115	67
Krabby	WATER 325	30	105	90	25	25	50
Kingler	WATER 475	55	130	115	50	50	75
Voltorb	ELECTRIC 330	40	30	50	55	55	100
Electrode	ELECTRIC 490	60	50	70	80	80	150
Exeggcute 	Exeggcute	GRASS PSYCHIC	325	60	40	80	60	45	40
Exeggutor	GRASS PSYCHIC	530	95	95	85	125	75	55
Exeggutor Alolan Exeggutor	GRASS DRAGON	530	95	105	85	125	75	45 	
Cubone	GROUND 320	50	50	95	40	50	35
Marowak	GROUND 425	60	80	110	50	80	45
Marowak Alolan Marowak	FIRE GHOST	425	60	80	110	50	80	45
Hitmonlee	FIGHTING 455	50	120	53	35	110	87
Hitmonchan	FIGHTING 455	50	105	79	35	110	76
Lickitung	NORMAL 385	90	55	75	60	75	30
Koffing	POISON 340	40	65	95	60	45	35
Weezing	POISON 490	65	90	120	85	70	60
Rhyhorn	GROUND ROCK	345	80	85	95	30	30	25
Rhydon	GROUND ROCK	485	105	130	120	45	45	40
Chansey	NORMAL 450	250	5	5	35	105	50
Tangela 	Tangela	GRASS 435	65	55	115	100	40	60
Kangaskhan	NORMAL 490	105	95	80	40	80	90
Kangaskhan Mega Kangaskhan	NORMAL 590	105	125	100	60	100	100 	
Horsea	WATER 295	30	40	70	70	25	60
Seadra	WATER 440	55	65	95	95	45	85
Goldeen	WATER 320	45	67	60	35	50	63
Seaking	WATER 450	80	92	65	65	80	68
Staryu	WATER 340	30	45	55	70	55	85
Starmie	WATER PSYCHIC	520	60	75	85	100	85	115
Mr. Mime	PSYCHIC FAIRY	460	40	45	65	100	120	90
Scyther	BUG FLYING	500	70	110	80	55	80	105
Jynx	ICE PSYCHIC	455	65	50	35	115	95	95
Electabuzz	ELECTRIC 490	65	83	57	95	85	105
Magmar	FIRE 495	65	95	57	100	85	93
Pinsir	BUG 500	65	125	100	55	70	85
Pinsir Mega Pinsir	BUG FLYING	600	65	155	120	65	90	105
Tauros	NORMAL 490	75	100	95	40	70	110
Magikarp	WATER 200	20	10	55	15	20	80
Gyarados	WATER FLYING	540	95	125	79	60	100	81
Gyarados Mega Gyarados	WATER DARK	640	95	155	109	70	130	81
Lapras	WATER ICE	535	130	85	80	85	95	60
Ditto	NORMAL 288	48	48	48	48	48	48
Eevee	NORMAL 325	55	55	50	45	65	55
Eevee Partner Eevee	NORMAL 435	65	75	70	65	85	75 	
Vaporeon	WATER 525	130	65	60	110	95	65 	
Jolteon	ELECTRIC 525	65	65	60	110	95	130 	
Flareon	FIRE 525	65	130	60	95	110	65 
Porygon 	Porygon	NORMAL 395	65	60	70	85	75	40
Omanyte	ROCK WATER	355	35	40	100	90	55	35
Omastar	ROCK WATER	495	70	60	125	115	70	55
Kabuto	ROCK WATER	355	30	80	90	55	45	55
Kabutops	ROCK WATER	495	60	115	105	65	70	80
Aerodactyl	ROCK FLYING	515	80	105	65	60	75	130
Aerodactyl Mega Aerodactyl	ROCK FLYING	615	80	135	85	70	95	150
Snorlax	NORMAL 540	160	110	65	65	110	30
Articuno	ICE FLYING	580	90	85	100	95	125	85
Zapdos	ELECTRIC FLYING	580	90	90	85	125	90	100
Moltres	FIRE FLYING	580	90	100	90	125	85	90
Dratini 	Dratini	DRAGON 300	41	64	45	50	50	50
Dragonair	DRAGON 420	61	84	65	70	70	70
Dragonite	DRAGON FLYING	600	91	134	95	100	100	80
Mewtwo 	Mewtwo	PSYCHIC 680	106	110	90	154	90	130
Mewtwo Mega Mewtwo X	PSYCHIC FIGHTING	780	106	190	100	154	100	130
Mewtwo Mega Mewtwo Y	PSYCHIC 780	106	150	70	194	120	140
Mew	PSYCHIC 600	100	100	100	100	100	100
Chikorita	GRASS 318	45	49	65	49	65	45
Bayleef	GRASS 405	60	62	80	63	80	60
Meganium	GRASS 525	80	82	100	83	100	80
Cyndaquil	FIRE 309	39	52	43	60	50	65
Quilava 	Quilava	FIRE 405	58	64	58	80	65	80
Typhlosion	FIRE 534	78	84	78	109	85	100
Totodile	WATER 314	50	65	64	44	48	43
Croconaw	WATER 405	65	80	80	59	63	58
Feraligatr	WATER 530	85	105	100	79	83	78
Sentret	NORMAL 215	35	46	34	35	45	20
Furret	NORMAL 415	85	76	64	45	55	90
Hoothoot	NORMAL 
FLYING	262	60	30	30	36	56	50
Noctowl	NORMAL FLYING	452	100	50	50	86	96	70
Ledyba	BUG FLYING	265	40	20	30	40	80	55
Ledian 	Ledian	BUG FLYING	390	55	35	50	55	110	85
Spinarak	BUG POISON	250	40	60	40	40	40	30
Ariados	BUG POISON	400	70	90	70	60	70	40
Crobat	POISON FLYING	535	85	90	80	70	80	130
Chinchou 	Chinchou	WATER ELECTRIC	330	75	38	38	56	56	67
Lanturn	WATER ELECTRIC	460	125	58	58	76	76	67
Pichu	ELECTRIC 205	20	40	15	35	35	60
Cleffa	FAIRY 218	50	25	28	45	55	15
Igglybuff	NORMAL FAIRY	210	90	30	15	40	20	15
Togepi	FAIRY 245	35	20	65	40	65	20
Togetic	FAIRY FLYING	405	55	40	85	80	105	40
Natu	PSYCHIC FLYING	320	40	50	45	70	45	70
Xatu	PSYCHIC FLYING	470	65	75	70	95	70	95
Mareep	ELECTRIC 280	55	40	40	65	45	35
Flaaffy	ELECTRIC 365	70	55	55	80	60	45
Ampharos	ELECTRIC 510	90	75	85	115	90	55
Ampharos Mega Ampharos	ELECTRIC DRAGON	610	90	95	105	165	110	45 	
Bellossom	GRASS 490	75	80	95	90	100	50 	
Marill	WATER FAIRY	250	70	20	50	20	50	40
Azumarill	WATER FAIRY	420	100	50	80	60	80	50
Sudowoodo	ROCK 410	70	100	115	30	65	30
Politoed	WATER 500	90	75	75	90	100	70
Hoppip	GRASS FLYING	250	35	35	40	35	55	50
Skiploom	GRASS FLYING	340	55	45	50	45	65	80
Jumpluff	GRASS FLYING	460	75	55	70	55	95	110
Aipom	NORMAL 360	55	70	55	40	55	85
Sunkern	GRASS 180	30	30	30	30	30	30
Sunflora	GRASS 425	75	75	55	105	85	30
Yanma	BUG FLYING	390	65	65	45	75	45	95
Wooper	WATER GROUND	210	55	45	45	25	25	15
Quagsire	WATER GROUND	430	95	85	85	65	65	35
Espeon	PSYCHIC 525	65	65	60	130	95	110
Umbreon	DARK 525	95	65	110	60	130	65
Murkrow	DARK FLYING	405	60	85	42	85	42	91
Slowking	WATER PSYCHIC	490	95	75	80	100	110	30
Misdreavus	GHOST 435	60	60	60	85	85	85
Unown	PSYCHIC 336	48	72	48	72	48	48
Wobbuffet	PSYCHIC 405	190	33	58	33	58	33
Girafarig	NORMAL PSYCHIC	455	70	80	65	90	65	85
Pineco	BUG 290	50	65	90	35	35	15
Forretress	BUG STEEL	465	75	90	140	60	60	40
Dunsparce	NORMAL 415	100	70	70	65	65	45
Gligar	GROUND FLYING	430	65	75	105	35	65	85
Steelix	STEEL GROUND	510	75	85	200	55	65	30
Steelix Mega Steelix	STEEL GROUND	610	75	125	230	55	95	30 	
Snubbull	FAIRY 300	60	80	50	40	40	30 
Granbull	FAIRY 450	90	120	75	60	60	45
Qwilfish	WATER POISON	440	65	95	85	55	55	85
Scizor	BUG STEEL	500	70	130	100	55	80	65
Scizor Mega Scizor	BUG STEEL	600	70	150	140	65	100	75	
Shuckle	BUG ROCK	505	20	10	230	10	230	5
Heracross	BUG FIGHTING	500	80	125	75	40	95	85
Heracross Mega Heracross	BUG FIGHTING	600	80	185	115	40	105	75
Sneasel 	Sneasel	DARK ICE	430	55	95	55	35	75	115
Teddiursa	NORMAL 330	60	80	50	50	50	40
Ursaring	NORMAL 500	90	130	75	75	75	55
Slugma	FIRE 250	40	40	40	70	40	20
Magcargo	FIRE ROCK	430	60	50	120	90	80	30
Swinub	ICE GROUND	250	50	50	40	30	30	50
Piloswine	 ICE GROUND	450	100	100	80	60	60	50
Corsola	WATER ROCK	410	65	55	95	65	95	35
Remoraid	WATER 300	35	65	35	65	35	65
Octillery	WATER 480	75	105	75	105	75	45
Delibird	ICE FLYING	330	45	55	45	65	45	75
Mantine	WATER FLYING	485	85	40	70	80	140	70
Skarmory	STEELFLYING	465	65	80	140	40	70	70
Houndour	DARK  FIRE	330	45	60	30	80	50	65
Houndoom	DARK FIRE	500	75	90	50	110	80	95
Houndoom Mega Houndoom	DARK FIRE	600	75	90	90	140	90	115
Kingdra	WATER DRAGON	540	75	95	95	95	95	85
Phanpy 	Phanpy	GROUND 330	90	60	60	40	40	40
Donphan	GROUND 	Porygon2	NORMAL 515	85	80	90	105	95	60	
Stantler	NORMAL 465	73	95	62	85	65	85
Smeargle	NORMAL 250	55	20	35	20	45	75
Tyrogue	FIGHTING 210	35	35	35	35	35	35
Hitmontop	FIGHTING 455	50	95	95	35	110	70
Smoochum	ICE PSYCHIC	305	45	30	15	85	65	65
Elekid	ELECTRIC 360	45	63	37	65	55	95
Magby	FIRE 365	45	75	37	70	55	83
Miltank	NORMAL 490	95	80	105	40	70	100
Blissey	NORMAL 540	255	10	10	75	135	55
Raikou 	Raikou	ELECTRIC 580	90	85	75	115	100	115
Entei	FIRE 580	115	115	85	90	75	100
Suicune	WATER 580	100	75	115	90	115	85
Larvitar	ROCK GROUND	300	50	64	50	45	50	41
Pupitar	ROCK GROUND	410	70	84	70	65	70	51
Tyranitar	ROCK DARK	600	100	134	110	95	100	61
Tyranitar Mega Tyranitar	ROCK DARK	700	100	164	150	95	120	71
Lugia	PSYCHIC FLYING	680	106	90	130	90	154	110
Ho-oh	FIRE FLYING	680	106	130	90	110	154	90
Celebi	PSYCHIC GRASS	600	100	100	100	100	100	100
Treecko	GRASS 310	40	45	35	65	55	70
Grovyle	GRASS 405	50	65	45	85	65	95
Sceptile	GRASS 530	70	85	65	105	85	120
Sceptile Mega Sceptile	GRASS DRAGON	630	70	110	75	145	85	145	
Torchic	FIRE 310	45	60	40	70	50	45
Combusken	FIRE FIGHTING	405	60	85	60	85	60	55
Blaziken	FIRE FIGHTING	530	80	120	70	110	70	80
Blaziken Mega Blaziken	FIRE FIGHTING	630	80	160	80	130	80	100
Mudkip	WATER 310	50	70	50	50	50	40
Marshtomp	WATER GROUND	405	70	85	70	60	70	50
Swampert	WATER GROUND	535	100	110	90	85	90	60
Swampert Mega Swampert	WATER GROUND	635	100	150	110	95	110	70 	
Poochyena	DARK 220	35	55	35	30	30	35
Mightyena	DARK 420	70	90	70	60	60	70
Zigzagoon	NORMAL 240	38	30	41	30	41	60
Linoone	NORMAL 420	78	70	61	50	61	100
Wurmple	BUG 195	45	45	35	20	30	20
Silcoon	BUG 205	50	35	55	25	25	15
Beautifly	BUG FLYING	395	60	70	50	100	50	65
Cascoon	BUG 205	50	35	55	25	25	15
Dustox	BUG POISON	385	60	50	70	50	90	65
Lotad	WATER GRASS	220	40	30	30	40	50	30
Lombre	WATER GRASS	340	60	50	50	60	70	50
Ludicolo	WATER GRASS	480	80	70	70	90	100	70
Seedot	GRASS 220	40	40	50	30	30	30
Nuzleaf	GRASS DARK	340	70	70	40	60	40	60
Shiftry	GRASS DARK	480	90	100	60	90	60	80
Taillow	NORMAL FLYING	270	40	55	30	30	30	85
Swellow	NORMAL FLYING	455	60	85	60	75	50	125
Wingull	WATER FLYING	270	40	30	30	55	30	85
Pelipper	WATER FLYING	440	60	50	100	95	70	65
Ralts	PSYCHIC FAIRY	198	28	25	25	45	35	40
Kirlia	PSYCHIC FAIRY	278	38	35	35	65	55	50
Gardevoir	PSYCHIC FAIRY	518	68	65	65	125	115	80
Gardevoir Mega Gardevoir	PSYCHIC FAIRY	618	68	85	65	165	135	100 	
Surskit	BUG WATER	269	40	30	32	50	52	65
Masquerain	BUG FLYING	454	70	60	62	100	82	80
Shroomish	GRASS 295	60	40	60	40	60	35
Breloom	GRASS FIGHTING	460	60	130	80	60	60	70
Slakoth	NORMAL 280	60	60	60	35	35	30
Vigoroth	NORMAL 440	80	80	80	55	55	90
Slaking	NORMAL 670	150	160	100	95	65	100
Nincada	BUG GROUND	266	31	45	90	30	30	40
Ninjask	BUG FLYING	456	61	90	45	50	50	160
Shedinja	BUG GHOST	236	1	90	45	30	30	40
Whismur	NORMAL 240	64	51	23	51	23	28
Loudred	NORMAL 360	84	71	43	71	43	48
Exploud	NORMAL 490	104	91	63	91	73	68
Makuhita	FIGHTING 237	72	60	30	20	30	25
Hariyama	FIGHTING 474	144	120	60	40	60	50
Azurill	NORMAL FAIRY	190	50	20	40	20	40	20
Nosepass	ROCK 375	30	45	135	45	90	30
Skitty	NORMAL 260	50	45	45	35	35	50
Delcatty	NORMAL 400	70	65	65	55	55	90
Sableye	DARK GHOST	380	50	75	75	65	65	50
Sableye Mega Sableye	DARK GHOST	480	50	85	125	85	115	20 
Mawile	STEEL FAIRY	380	50	85	85	55	55	50 
Mega Mawile	STEEL FAIRY	480	50	105	125	55	95	50
Aron	STEEL ROCK	330	50	70	100	40	40	30
Lairon	STEEL ROCK	430	60	90	140	50	50	40
Aggron	STEEL ROCK	530	70	110	180	60	60	50
Aggron Mega Aggron	STEEL 630	70	140	230	60	80	50
Meditite	FIGHTING PSYCHIC	280	30	40	55	40	55	60
Medicham	FIGHTING PSYCHIC	410	60	60	75	60	75	80
Medicham Mega Medicham	FIGHTING PSYCHIC	510	60	100	85	80	85	100
Electrike	ELECTRIC 295	40	45	40	65	40	65
Manectric	ELECTRIC 475	70	75	60	105	60	105
Manectric Mega Manectric	ELECTRIC 575	70	75	80	135	80	135 	
Plusle	ELECTRIC 405	60	50	40	85	75	95
Minun	ELECTRIC 405	60	40	50	75	85	95
Volbeat	BUG 430	65	73	75	47	85	85
Illumise 	Illumise	BUG 430	65	47	75	73	85	85
Roselia	GRASS POISON	400	50	60	45	100	80	65
Gulpin	POISON 302	70	43	53	43	53	40
Swalot	POISON 467	100	73	83	73	83	55
Carvanha	WATER DARK	305	45	90	20	65	20	65
Sharpedo	WATER DARK	460	70	120	40	95	40	95
Sharpedo Mega Sharpedo	WATER DARK	560	70	140	70	110	65	105	
Wailmer	WATER 400	130	70	35	70	35	60
Wailord	WATER 500	170	90	45	90	45	60
Numel	FIRE GROUND	305	60	60	40	65	45	35
Camerupt	FIRE GROUND	460	70	100	70	105	75	40
Camerupt Mega Camerupt	FIRE GROUND	560	70	120	100	145	105	20
Torkoal	FIRE 470	70	85	140	85	70	20
Spoink 	Spoink	PSYCHIC 330	60	25	35	70	80	60
Grumpig	PSYCHIC 470	80	45	65	90	110	80
Spinda	NORMAL 360	60	60	60	60	60	60
Trapinch	GROUND 290	45	100	45	45	45	10
Vibrava	GROUND DRAGON	340	50	70	50	50	50	70
Flygon	GROUND DRAGON	520	80	100	80	80	80	100
Cacnea	GRASS 335	50	85	40	85	40	35
Cacturne	GRASS DARK	475	70	115	60	115	60	55
Swablu	NORMAL FLYING	310	45	40	60	40	75	50
Altaria	DRAGON FLYING	490	75	70	90	70	105	80
Altaria Mega Altaria	DRAGON
FAIRY	590	75	110	110	110	105	80 	
Zangoose	NORMAL 458	73	115	60	60	60	90 	
Seviper	POISON 458	73	100	60	100	60	65
Lunatone	ROCK PSYCHIC	460	90	55	65	95	85	70 
Solrock	ROCK PSYCHIC	460	90	95	85	55	65	70
Barboach	WATER GROUND	288	50	48	43	46	41	60
Whiscash	WATER GROUND	468	110	78	73	76	71	60
Corphish	WATER 308	43	80	65	50	35	35
Crawdaunt	WATER DARK	468	63	120	85	90	55	55
Baltoy	GROUND PSYCHIC	300	40	40	55	40	70	55
Claydol	GROUND PSYCHIC	500	60	70	105	70	120	75
Lileep	ROCK GRASS	355	66	41	77	61	87	23
Cradily	ROCK GRASS	495	86	81	97	81	107	43
Anorith	ROCK BUG	355	45	95	50	40	50	75
Armaldo	ROCK BUG	495	75	125	100	70	80	45
Feebas 	Feebas	WATER 200	20	15	20	10	55	80
Milotic	WATER 540	95	60	79	100	125	81
Castform	NORMAL 420	70	70	70	70	70	70
Castform Sunny Form	FIRE 420	70	70	70	70	70	70
Castform Rainy Form	WATER 420	70	70	70	70	70	70
Castform Snowy Form	ICE 420	70	70	70	70	70	70
Kecleon	NORMAL 440	60	90	70	60	120	40
Shuppet	GHOST 295	44	75	35	63	33	45
Banette	GHOST 455	64	115	65	83	63	65
BanetteMega Banette	GHOST 555	64	165	75	93	83	75
Duskull	GHOST 295	20	40	90	30	90	25
Dusclops	GHOST 455	40	70	130	60	130	25
Tropius	GRASS FLYING	460	99	68	83	72	87	51
Chimecho	PSYCHIC 455	75	50	80	95	90	65
Absol	DARK 465	65	130	60	75	60	75
Absol Mega Absol	DARK 565	65	150	60	115	60	115
Wynaut	PSYCHIC 260	95	23	48	23	48	23
Snorunt	ICE 300	50	50	50	50	50	50
Glalie	ICE 480	80	80	80	80	80	80
Glalie Mega Glalie	ICE 580	80	120	80	120	80	100
Spheal	ICE WATER	290	70	40	50	55	50	25
Sealeo	ICE WATER	410	90	60	70	75	70	45
Walrein	ICE WATER	530	110	80	90	95	90	65
Clamperl	WATER 345	35	64	85	74	55	32
Huntail	WATER 485	55	104	105	94	75	52
Gorebyss	WATER 485	55	84	105	114	75	52
Relicanth	WATER ROCK	485	100	90	130	45	65	55
Luvdisc	WATER 330	43	30	55	40	65	97
Bagon	DRAGON 300	45	75	60	40	30	50
Shelgon	DRAGON 420	65	95	100	60	50	50
Salamence	DRAGON FLYING	600	95	135	80	110	80	100
Salamence Mega Salamence	DRAGON FLYING	700	95	145	130	120	90	120
Beldum	STEEL PSYCHIC	300	40	55	80	35	60	30
Metang	STEEL PSYCHIC	420	60	75	100	55	80	50
Metagross	STEEL PSYCHIC	600	80	135	130	95	90	70
Metagross Mega Metagross	STEEL PSYCHIC	700	80	145	150	105	110	110 	
Regirock	ROCK 580	80	100	200	50	100	50 	
Regice	ICE 580	80	50	100	100	200	50
Registeel	STEEL 580	80	75	150	75	150	50
Latias	DRAGON PSYCHIC	600	80	80	90	110	130	110
Latias Mega Latias	DRAGON PSYCHIC	700	80	100	120	140	150	110 	
Latios	DRAGON PSYCHIC	600	80	90	80	130	110	110
Latios Mega Latios	DRAGON PSYCHIC	700	80	130	100	160	120	110
Kyogre	WATER 670	100	100	90	150	140	90
Kyogre Primal Kyogre	WATER 770	100	150	90	180	160	90 
Groudon	GROUND 670	100	150	140	100	90	90 
Groudon Primal Groudon	GROUND FIRE	770	100	180	160	150	90	90
Rayquaza	DRAGON FLYING	680	105	150	90	150	90	95
Rayquaza Mega Rayquaza	DRAGON FLYING	780	105	180	100	180	100	115
Jirachi	STEEL PSYCHIC	600	100	100	100	100	100	100
Deoxys Normal Forme	PSYCHIC 600	50	150	50	150	50	150
Deoxys Attack Forme	PSYCHIC 600	50	180	20	180	20	150
Deoxys Defense Forme	PSYCHIC 600	50	70	160	70	160	90
Deoxys Speed Forme	PSYCHIC 600	50	95	90	95	90	180
Turtwig	GRASS 318	55	68	64	45	55	31
Grotle	GRASS 405	75	89	85	55	65	36
Torterra	GRASS GROUND	525	95	109	105	75	85	56
Chimchar	FIRE 309	44	58	44	58	44	61
Monferno	FIRE FIGHTING	405	64	78	52	78	52	81
Infernape	FIRE FIGHTING	534	76	104	71	104	71	108
Piplup	WATER 314	53	51	53	61	56	40
Prinplup	WAER 405	64	66	68	81	76	50
Empoleon	WATER STEEL	530	84	86	88	111	101	60
Starly	NORMAL FLYING	245	40	55	30	30	30	60
Staravia	NORMAL FLYING	340	55	75	50	40	40	80
Staraptor	NORMAL FLYING	485	85	120	70	50	60	100
Bidoof	NORMAL 250	59	45	40	35	40	31
Bibarel	NORMAL WATER	410	79	85	60	55	60	71
Kricketot	BUG 194	37	25	41	25	41	25
Kricketune	BUG 384	77	85	51	55	51	65
Shinx	ELECTRIC 263	45	65	34	40	34	45
Luxio	ELECTRIC 363	60	85	49	60	49	60
Luxray	ELECTRIC 523	80	120	79	95	79	70
Budew	GRASS POISON	280	40	30	35	50	70	55
Roserade	GRASS POISON	515	60	70	65	125	105	90
Cranidos	ROCK 350	67	125	40	30	30	58
Rampardos	ROCK 495	97	165	60	65	50	58
Shieldon	ROCK STEEL	350	30	42	118	42	88	30
Bastiodon	ROCK STEEL	495	60	52	168	47	138	30
Burmy	BUG 224	40	29	45	29	45	36
Wormadam Plant Cloak	BUG GRASS	424	60	59	85	79	105	36
Wormadam Sandy Cloak	BUG GROUND	424	60	79	105	59	85	36
Wormadam Trash Cloak	BUG STEEL	424	60	69	95	69	95	36
Mothim	BUG FLYING	424	70	94	50	94	50	66
Combee	BUG FLYING	244	30	30	42	30	42	70
Vespiquen	BUG FLYING	474	70	80	102	80	102	40
Pachirisu	ELECTRIC 405	60	45	70	45	90	95
Buizel	WATER 330	55	65	35	60	30	85
Floatzel	WATER 495	85	105	55	85	50	115
Cherubi	GRASS 275	45	35	45	62	53	35
Cherrim	GRASS 450	70	60	70	87	78	85
Shellos	WATER 325	76	48	48	57	62	34
Gastrodon	WATER GROUND	475	111	83	68	92	82	39
Ambipom	NORMAL 482	75	100	66	60	66	115
Drifloon	GHOST FLYING	348	90	50	34	60	44	70
Drifblim	GHOST FLYING	498	150	80	44	90	54	80
Buneary	NORMAL 350	55	66	44	44	56	85
Lopunny	NORMAL 480	65	76	84	54	96	105
Lopunny Mega Lopunny	NORMAL FIGHTING	580	65	136	94	54	96	135
Mismagius	GHOST 495	60	60	60	105	105	105
Honchkrow	DARK FLYING	505	100	125	52	105	52	71
Glameow	NORMAL 310	49	55	42	42	37	85
Purugly	NORMAL  452	71	82	64	64	59	112
Chingling	PSYCHIC  285	45	30	50	65	50	45
Stunky	POISON DARK	329	63	63	47	41	41	74
Skuntank	POISON DARK	479	103	93	67	71	61	84
Bronzor	STEEL PSYCHIC	300	57	24	86	24	86	23
Bronzong	STEEL PSYCHIC	500	67	89	116	79	116	33
Bonsly	ROCK 290	50	80	95	10	45	10
Mime Jr.	PSYCHIC FAIRY	310	20	25	45	70	90	60
Happiny	NORMAL 220	100	5	5	15	65	30
Chatot	NORMAL FLYING	411	76	65	45	92	42	91
Spiritomb	GHOST DARK	485	50	92	108	92	108	35
Gible	DRAGON GROUND	300	58	70	45	40	45	42
Gabite	DRAGON GROUND	410	68	90	65	50	55	82
Garchomp	DRAGON GROUND	600	108	130	95	80	85	102
Garchomp Mega Garchomp	DRAGON GROUND	700	108	170	115	120	95	92	
Munchlax	NORMAL 390	135	85	40	40	85	5 
Riolu	FIGHTING 285	40	70	40	35	40	60
Lucario	FIGHTING STEEL	525	70	110	70	115	70	90
Lucario Mega Lucario	FIGHTING STEEL	625	70	145	88	140	70	112 	
Hippopotas	GROUND 330	68	72	78	38	42	32
Hippowdon	GROUND 525	108	112	118	68	72	47
Skorupi	POISON BUG	330	40	50	90	30	55	65
Drapion	POISON DARK	500	70	90	110	60	75	95
Croagunk	POISON FIGHTING	300	48	61	40	61	40	50
Toxicroak	POISON FIGHTING	490	83	106	65	86	65	85
Carnivine	GRASS 454	74	100	72	90	72	46
Finneon	WATER 330	49	49	56	49	61	66
Lumineon	WATER 460	69	69	76	69	86	91
Mantyke	WATER FLYING	345	45	20	50	60	120	50
Snover	GRASS ICE	334	60	62	50	62	60	40
Abomasnow	GRASS ICE	494	90	92	75	92	85	60
Abomasnow Mega Abomasnow	GRASS ICE	594	90	132	105	132	105	30
Weavile	DARK ICE	510	70	120	65	45	85	125
Magnezone	ELECTRIC STEEL	535	70	70	115	130	90	60
Lickilicky	NORMAL 515	110	85	95	80	95	50
Rhyperior	GROUND ROCK	535	115	140	130	55	55	40
Tangrowth	GRASS 535	100	100	125	110	50	50
Electivire	ELECTRIC 540	75	123	67	95	85	95
Magmortar	FIRE 540	75	95	67	125	95	83
Togekiss	FAIRY FLYING	545	85	50	95	120	115	80
Yanmega	BUG FLYING	515	86	76	86	116	56	95
Leafeon	GRASS 525	65	110	130	60	65	95
Glaceon	ICE 525	65	60	110	130	95	65
Gliscor	GROUND FLYING	510	75	95	125	45	75	95
Mamoswine	ICE GROUND	530	110	130	80	70	60	80
Porygon-Z	NORMAL 535	85	80	70	135	75	90
Gallade	PSYCHIC FIGHTING	518	68	125	65	65	115	80
Gallade Mega Gallade	PSYCHIC FIGHTING	618	68	165	95	65	115	110 	
Probopass	ROCK STEEL	525	60	55	145	75	150	40 	
Dusknoir	GHOST 525	45	100	135	65	135	45 
Froslass	ICE GHOST	480	70	80	70	80	70	110
Rotom	ELECTRIC GHOST	440	50	50	77	95	77	91
Rotom Heat Rotom	ELECTRIC FIRE	520	50	65	107	105	107	86
Rotom Wash Rotom	ELECTRIC WATER	520	50	65	107	105	107	86 
Rotom Frost Rotom	ELECTRIC ICE	520	50	65	107	105	107	86
Rotom Fan Rotom	ELECTRIC FLYING	520	50	65	107	105	107	86
Rotom Mow Rotom	ELECTRIC GRASS	520	50	65	107	105	107	86 
Uxie	PSYCHIC 580	75	75	130	75	130	95
Mesprit	PSYCHIC 580	80	105	105	105	105	80
Azelf	PSYCHIC 580	75	125	70	125	70	115
Dialga	STEEL DRAGON	680	100	120	120	150	100	90
Palkia	WATER DRAGON	680	90	120	100	150	120	100
Heatran	FIRE STEEL	600	91	90	106	130	106	77
Regigigas	NORMAL 670	110	160	110	80	110	100
Giratina Altered Forme	GHOST DRAGON	680	150	100	120	100	120	90	
Giratina Origin Forme	GHOST DRAGON	680	150	120	100	120	100	90
Cresselia	PSYCHIC 600	120	70	120	75	130	85
Phione	WATER 480	80	80	80	80	80	80
Manaphy	WATER 600	100	100	100	100	100	100
Darkrai	DARK 600	70	90	90	135	90	125
Shaymin Land Forme	GRASS 600	100	100	100	100	100	100
Shaymin Sky Forme	GRASS FLYING	600	100	103	75	120	75	127
Arceus	NORMAL 720	120	120	120	120	120	120
Victini	PSYCHIC FIRE	600	100	100	100	100	100	100
Snivy	GRASS 308	45	45	55	45	55	63
Servine	GRASS 413	60	60	75	60	75	83
Serperior	GRASS 528	75	75	95	75	95	113
Tepig	FIRE 308	65	63	45	45	45	45
Pignite	FIRE FIGHTING	418	90	93	55	70	55	55
Emboar	FIRE FIGHTING	528	110	123	65	100	65	65
Oshawott	WATER 308	55	55	45	63	45	45
Dewott	WATER 413	75	75	60	83	60	60
Samurott	WATER 528	95	100	85	108	70	70
Patrat	NORMAL 255	45	55	39	35	39	42
Watchog	NORMAL 420	60	85	69	60	69	77
Lillipup	NORMAL 275	45	60	45	25	45	55
Herdier	NORMAL 370	65	80	65	35	65	60
Stoutland	NORMAL 500	85	110	90	45	90	80
Purrloin	DARK 281	41	50	37	50	37	66
Liepard	DARK 446	64	88	50	88	50	106
Pansage	GRASS 316	50	53	48	53	48	64
Simisage	GRASS 498	75	98	63	98	63	101
Pansear	FIRE 316	50	53	48	53	48	64
Simisear	FIRE 498	75	98	63	98	63	101
Panpour	WATER 316	50	53	48	53	48	64
Simipour	WATER 498	75	98	63	98	63	101
Munna	PSYCHIC 292	76	25	45	67	55	24
Musharna 	Musharna	PSYCHIC 487	116	55	85	107	95	29
Pidove	NORMAL FLYING	264	50	55	50	36	30	43
Tranquill	NORMAL FLYING	358	62	77	62	50	42	65
Unfezant	NORMAL FLYING	488	80	115	80	65	55	93
Blitzle	ELECTRIC 295	45	60	32	50	32	76
Zebstrika	ELECTRIC 497	75	100	63	80	63	116
Roggenrola	ROCK 280	55	75	85	25	25	15
Boldore	ROCK 390	70	105	105	50	40	20
Gigalith	ROCK 515	85	135	130	60	80	25
Woobat 	Woobat	PSYCHIC FLYING	323	65	45	43	55	43	72
Swoobat	PSYCHIC FLYING	425	67	57	55	77	55	114
Drilbur	GROUND 328	60	85	40	30	45	68
Excadrill	GROUND STEEL	508	110	135	60	50	65	88
Audino	NORMAL 445	103	60	86	60	86	50
Audino Mega Audino	NORMAL FAIRY	545	103	60	126	80	126	50 	
Timburr	FIGHTING 305	75	80	55	25	35	35
Gurdurr	FIGHTING 405	85	105	85	40	50	40
Conkeldurr	FIGHTING 505	105	140	95	55	65	45
Tympole	WATER 294	50	50	40	50	40	64
Palpitoad 	Palpitoad	WATER GROUND	384	75	65	55	65	55	69
Seismitoad	WATER GROUND	509	105	95	75	85	75	74
Throh	FIGHTING 465	120	100	85	30	85	45
Sawk	FIGHTING 465	75	125	75	30	75	85
Sewaddle	BUG GRASS	310	45	53	70	40	60	42
Swadloon	BUG GRASS	380	55	63	90	50	80	42
Leavanny	BUG GRASS	500	75	103	80	70	80	92
Venipede 	Venipede	BUG POISON	260	30	45	59	30	39	57
Whirlipede	BUG POISON	360	40	55	99	40	79	47
Scolipede	BUG POISON	485	60	100	89	55	69	112
Cottonee	GRASS FAIRY	280	40	27	60	37	50	66
Whimsicott	GRASS FAIRY	480	60	67	85	77	75	116
Petilil	GRASS 280	45	35	50	70	50	30
Lilligant	GRASS 480	70	60	75	110	75	90
Basculin Red-Striped Form	WATER 460	70	92	65	80	55	98
Basculin Blue-Striped Form	WATER 460	70	92	65	80	55	98 
Sandile 	Sandile	GROUND DARK	292	50	72	35	35	35	65
Krokorok	GROUND DARK	351	60	82	45	45	45	74
Krookodile 	Krookodile	GROUND DARK	519	95	117	80	65	70	92
Darumaka	FIRE 315	70	90	45	15	45	50
Darmanitan Standard Mode	FIRE 480	105	140	55	30	55	95 
Darmanitan Zen Mode	FIRE PSYCHIC	540	105	30	105	140	105	55
Maractus	GRASS 461	75	86	67	106	67	60
Dwebble	BUG ROCK	325	50	65	85	35	35	55
Crustle 	Crustle	BUG ROCK	485	70	105	125	65	75	45
Scraggy	DARK FIGHTING	348	50	75	70	35	70	48
Scrafty	DARK FIGHTING	488	65	90	115	45	115	58
Sigilyph	PSYCHIC FLYING	490	72	58	80	103	80	97
Yamask	GHOST 303	38	30	85	55	65	30
Cofagrigus	GHOST 483	58	50	145	95	105	30
Tirtouga	WATER ROCK	355	54	78	103	53	45	22
Carracosta	WATER ROCK	495	74	108	133	83	65	32
Archen	ROCK FLYING	401	55	112	45	74	45	70
Archeops	ROCK FLYING	567	75	140	65	112	65	110
Trubbish	POISON 329	50	50	62	40	62	65
Garbodor	POISON 474	80	95	82	60	82	75
Zorua	DARK 330	40	65	40	80	40	65
Zoroark	DARK 510	60	105	60	120	60	105
Minccino	NORMAL 300	55	50	40	40	40	75
Cinccino	NORMAL 470	75	95	60	65	60	115
Gothita	PSYCHIC 290	45	30	50	55	65	45
Gothorita	PSYCHIC 390	60	45	70	75	85	55
Gothitelle	PSYCHIC 490	70	55	95	95	110	65
Solosis	PSYCHIC 290	45	30	40	105	50	20
Duosion	PSYCHIC 370	65	40	50	125	60	30
Reuniclus	PSYCHIC 490	110	65	75	125	85	30
Ducklett	WATER FLYING	305	62	44	50	44	50	55
Swanna	WATER FLYING	473	75	87	63	87	63	98
Vanillite	ICE 305	36	50	50	65	60	44
Vanillish	ICE 395	51	65	65	80	75	59
Vanilluxe	ICE 535	71	95	85	110	95	79
Deerling	NORMAL GRASS	335	60	60	50	40	50	75
Sawsbuck	NORMAL GRASS	475	80	100	70	60	70	95
Emolga	ELECTRIC FLYING	428	55	75	60	75	60	103
Karrablast	BUG 315	50	75	45	40	45	60
Escavalier	BUG STEEL	495	70	135	105	60	105	20
Foongus	GRASS POISON	294	69	55	45	55	55	15
Amoonguss	GRASS POISON	464	114	85	70	85	80	30
Frillish	WATER GHOST	335	55	40	50	65	85	40
Jellicent	WATER GHOST	480	100	60	70	85	105	60
Alomomola	WATER 470	165	75	80	40	45	65
Joltik	BUGELECTRIC	319	50	47	50	57	50	65 	
Galvantula	BUG ELECTRIC	472	70	77	60	97	60	108	
Ferroseed	GRASS STEEL	305	44	50	91	24	86	10 	
Ferrothorn	GRASSSTEEL	489	74	94	131	54	116	20
Klink	STEEL 300	40	55	70	45	60	30
Klang	STEEL 440	60	80	95	70	85	50
Klinklang	STEEL 520	60	100	115	70	85	90
Tynamo	ELECTRIC 275	35	55	40	45	40	60
Eelektrik	ELECTRIC 405	65	85	70	75	70	40
Eelektross	ELECTRIC 515	85	115	80	105	80	50
Elgyem	PSYCHIC 335	55	55	55	85	55	30
Beheeyem	PSYCHIC 485	75	75	75	125	95	40
Litwick	GHOST FIRE	275	50	30	55	65	55	20
Lampent	GHOST FIRE	370	60	40	60	95	60	55
Chandelure	GHOST FIRE	520	60	55	90	145	90	80
Axew	DRAGON 320	46	87	60	30	40	57
Fraxure	DRAGON 410	66	117	70	40	50	67
Haxorus	DRAGON 540	76	147	90	60	70	97
Cubchoo	ICE 305	55	70	40	60	40	40
Beartic	ICE 505	95	130	80	70	80	50
Cryogonal	ICE 515	80	50	50	95	135	105
Shelmet	BUG 305	50	40	85	40	65	25
Accelgor	BUG 495	80	70	40	100	60	145
Stunfisk	GROUND ELECTRIC	471	109	66	84	81	99	32
Mienfoo	FIGHTING 350	45	85	50	55	50	65
Mienshao	FIGHTING 510	65	125	60	95	60	105
Druddigon	DRAGON 485	77	120	90	60	90	48
Golett	GROUND GHOST	303	59	74	50	35	50	35
Golurk	GROUND GHOST	483	89	124	80	55	80	55
Pawniard	DARK STEEL	340	45	85	70	40	40	60
Bisharp	DARK STEEL	490	65	125	100	60	70	70
Bouffalant	NORMAL 490	95	110	95	40	95	55
Rufflet	NORMAL FLYING	350	70	83	50	37	50	60
Braviary	NORMAL FLYING	510	100	123	75	57	75	80
Vullaby	DARK FLYING	370	70	55	75	45	65	60
Mandibuzz	DARK FLYING	510	110	65	105	55	95	80
Heatmor	FIRE 484	85	97	66	105	66	65
Durant	BUG STEEL	484	58	109	112	48	48	109
Deino	DARK DRAGON	300	52	65	50	45	50	38
Zweilous	DARK DRAGON	420	72	85	70	65	70	58
Hydreigon	DARK DRAGON	600	92	105	90	125	90	98
Larvesta	BUG FIRE	360	55	85	55	50	55	60
Volcarona	BUG FIRE	550	85	60	65	135	105	100
Cobalion	STEEL FIGHTING	580	91	90	129	90	72	108
Terrakion	ROCK FIGHTING	580	91	129	90	72	90	108
Virizion	GRASS FIGHTING	580	91	90	72	90	129	108
Tornadus Incarnate Forme	FLYING 580	79	115	70	125	80	111
Tornadus Therian Forme	FLYING 580	79	100	80	110	90	121 
hundurus Incarnate Forme	ELECTRIC FLYING	580	79	115	70	125	80	111
Thundurus Therian Forme	ELECTRIC FLYING	580	79	105	70	145	80	101 
Reshiram	DRAGON FIRE	680	100	120	100	150	120	90
Zekrom	DRAGON ELECTRIC	680	100	150	120	120	100	90
Landorus Incarnate Forme	GROUND FLYING	600	89	125	90	115	80	101 
Landorus Therian Forme	GROUND FLYING	600	89	145	90	105	80	91	
Kyurem	DRAGON ICE	660	125	130	90	130	90	95
Kyurem Black Kyurem	DRAGON ICE	700	125	170	100	120	90	95 	
Kyurem White Kyurem	DRAGON ICE	700	125	120	90	170	100	95
Keldeo Ordinary Forme	WATER FIGHTING	580	91	72	90	129	90	108
Keldeo Resolute Forme	WATER FIGHTING	580	91	72	90	129	90	108
Meloetta Aria Forme	NORMAL PSYCHIC	600	100	77	77	128	128	90
Meloetta Pirouette Forme	NORMAL FIGHTING	600	100	128	90	77	77	128
Genesect	BUG STEEL	600	71	120	95	120	95	99
Chespin	GRASS 313	56	61	65	48	45	38
Quilladin	GRASS 405	61	78	95	56	58	57
Chesnaught	GRASS FIGHTING	530	88	107	122	74	75	64
Fennekin	FIRE 307	40	45	40	62	60	60
Braixen	FIRE 409	59	59	58	90	70	73
Delphox	FIRE PSYCHIC	534	75	69	72	114	100	104
Froakie 	Froakie	WATER 314	41	56	40	62	44	71
Frogadier	WATER 405	54	63	52	83	56	97
Greninja	WATER DARK	530	72	95	67	103	71	122
Greninja Ash-Greninja	WATER DARK	640	72	145	67	153	71	132 	
Bunnelby	NORMAL 237	38	36	38	32	36	57
Diggersby	NORMAL GROUND	423	85	56	77	50	77	78
Fletchling	NORMAL FLYING	278	45	50	43	40	38	62
Fletchinder	FIRE FLYING	382	62	73	55	56	52	84
Talonflame	FIRE FLYING	499	78	81	71	74	69	126
Scatterbug	BUG 200	38	35	40	27	25	35
Spewpa	BUG 213	45	22	60	27	30	29
Vivillon	BUG FLYING	411	80	52	50	90	50	89
Litleo	FIRE NORMAL	369	62	50	58	73	54	72
Pyroar	FIRE NORMAL	507	86	68	72	109	66	106
Flabébé	FAIRY 303	44	38	39	61	79	42
Floette	FAIRY 371	54	45	47	75	98	52
Florges	FAIRY 552	78	65	68	112	154	75
Skiddo	GRASS 350	66	65	48	62	57	52
Gogoat	GRASS 531	123	100	62	97	81	68
Pancham	FIGHTING 348	67	82	62	46	48	43
Pangoro	FIGHTING DARK	495	95	124	78	69	71	58
Furfrou	NORMAL 472	75	80	60	65	90	102
Espurr	PSYCHIC 355	62	48	54	63	60	68
Meowstic Male	PSYCHIC 466	74	48	76	83	81	104
Meowstic Female	PSYCHIC 466	74	48	76	83	81	104 
Honedge	STEEL GHOST	325	45	80	100	35	37	28
Doublade	STEEL GHOST	448	59	110	150	45	49	35
Aegislash Blade Forme	STEEL GHOST	520	60	150	50	150	50	60
Aegislash Shield Forme	STEEL GHOST	520	60	50	150	50	150	60
Spritzee	FAIRY 341	78	52	60	63	65	23
Aromatisse	FAIRY 462	101	72	72	99	89	29
Swirlix	FAIRY 341	62	48	66	59	57	49
Slurpuff	FAIRY 480	82	80	86	85	75	72
Inkay	DARK PSYCHIC	288	53	54	53	37	46	45
Malamar	DARK PSYCHIC	482	86	92	88	68	75	73
Binacle	ROCK WATER	306	42	52	67	39	56	50
Barbaracle	ROCK WATER	500	72	105	115	54	86	68
Skrelp	POISON WATER	320	50	60	60	60	60	30
Dragalge	POISON DRAGON	494	65	75	90	97	123	44
Clauncher	WATER 330	50	53	62	58	63	44
Clawitzer	WATER 500	71	73	88	120	89	59
Helioptile	ELECTRIC NORMAL	289	44	38	33	61	43	70
Heliolisk	ELECTRIC NORMAL	481	62	55	52	109	94	109
Tyrunt	ROCK DRAGON	362	58	89	77	45	45	48
Tyrantrum	ROCK DRAGON	521	82	121	119	69	59	71
Amaura	ROCK ICE	362	77	59	50	67	63	46
Aurorus	ROCK ICE	521	123	77	72	99	92	58
Sylveon	FAIRY 525	95	65	65	110	130	60
Hawlucha	FIGHTING FLYING	500	78	92	75	74	63	118
Dedenne	ELECTRIC FAIRY	431	67	58	57	81	67	101
Carbink	ROCK FAIRY	500	50	50	150	50	150	50
Goomy	DRAGON 300	45	50	35	55	75	40
Sliggoo	DRAGON 452	68	75	53	83	113	60
Goodra	DRAGON 600	90	100	70	110	150	80
Klefki	STEEL FAIRY	470	57	80	91	80	87	75
Phantump	GHOST GRASS	309	43	70	48	50	60	38
Trevenant	GHOST GRASS	474	85	110	76	65	82	56
Pumpkaboo Average Size	GHOST GRASS	335	49	66	70	44	55	51 
Pumpkaboo Small Size	GHOST GRASS	335	44	66	70	44	55	56
Pumpkaboo Large Size	GHOST GRASS	335	54	66	70	44	55	46 
Pumpkaboo Super Size	GHOST GRASS	335	59	66	70	44	55	41
Gourgeist Average Size	GHOST GRASS	494	65	90	122	58	75	84
Gourgeist Small Size	GHOST GRASS	494	55	85	122	58	75	99
Gourgeist Large Size	GHOST GRASS	494	75	95	122	58	75	69
Gourgeist Super Size	GHOST GRASS	494	85	100	122	58	75	54
Bergmite	ICE 304	55	69	85	32	35	28
Avalugg	ICE 514	95	117	184	44	46	28
Noibat	FLYING DRAGON	245	40	30	35	45	40	55
Noivern	FLYING DRAGON	535	85	70	80	97	80	123
Xerneas	FAIRY 680	126	131	95	131	98	99
Yveltal	DARK FLYING	680	126	131	95	131	98	99
Zygarde 50% Forme	DRAGON GROUND	600	108	100	121	81	95	95 
Zygarde 10% Forme	DRAGON GROUND	486	54	100	71	61	85	115
Zygarde Complete Forme	DRAGON GROUND	708	216	100	121	91	95	85
Diancie	ROCK FAIRY	600	50	100	150	100	150	50
Diancie Mega Diancie	ROCK FAIRY	700	50	160	110	160	110	110
Hoopa Hoopa Confined	PSYCHIC GHOST	600	80	110	60	150	130	70
Hoopa Hoopa Unbound	PSYCHIC DARK	680	80	160	60	170	130	80
Volcanion	FIRE WATER	600	80	110	120	130	90	70
Rowlet	GRASS FLYING	320	68	55	55	50	50	42
Dartrix	GRASS FLYING	420	78	75	75	70	70	52
Decidueye	GRASS GHOST	530	78	107	75	100	100	70
Litten	FIRE 320	45	65	40	60	40	70
Torracat	FIRE 420	65	85	50	80	50	90
Incineroar	FIRE DARK	530	95	115	90	80	90	60
Popplio	WATER 320	50	54	54	66	56	40
Brionne	WATER 420	60	69	69	91	81	50
Primarina	WATER FAIRY	530	80	74	74	126	116	60
Pikipek	NORMAL FLYING	265	35	75	30	30	30	65
Trumbeak	NORMAL FLYING	355	55	85	50	40	50	75
Toucannon	NORMAL FLYING	485	80	120	75	75	75	60
Yungoos	NORMAL 253	48	70	30	30	30	45
Gumshoos	NORMAL 418	88	110	60	55	60	45
Grubbin	BUG 300	47	62	45	55	45	46
Charjabug	BUG ELECTRIC	400	57	82	95	55	75	36
Vikavolt	BUG ELECTRIC	500	77	70	90	145	75	43
Crabrawler	FIGHTING 338	47	82	57	42	47	63
Crabominable	FIGHTING ICE	478	97	132	77	62	67	43
Oricorio Baile Style	FIRE FLYING	476	75	70	70	98	70	93
Oricorio Pom-Pom Style	ELECTRIC FLYING	476	75	70	70	98	70	93
Oricorio Pa'u Style	PSYCHICFLYING	476	75	70	70	98	70	93
Oricorio Sensu Style	GHOST FLYING	476	75	70	70	98	70	93	
Cutiefly	BUG FAIRY	304	40	45	40	55	40	84
Ribombee	BUG FAIRY	464	60	55	60	95	70	124
Rockruff	ROCK 280	45	65	40	30	40	60
Rockruff Own Tempo Rockruff	ROCK 280	45	65	40	30	40	60
Lycanroc Midday Form	ROCK 487	75	115	65	55	65	112
Lycanroc Midnight Form	ROCK 487	85	115	75	55	75	82 
Lycanroc Dusk Form	ROCK 487	75	117	65	55	65	110
Wishiwashi Solo Form	WATER 175	45	20	20	25	25	40
Wishiwashi School Form	WATER 620	45	140	130	140	135	30
Mareanie	POISON WATER	305	50	53	62	43	52	45
Toxapex	POISON WATER	495	50	63	152	53	142	35
Mudbray	GROUND 385	70	100	70	45	55	45
Mudsdale	GROUND 500	100	125	100	55	85	35
Dewpider	WATER BUG	269	38	40	52	40	72	27
Araquanid	WATER BUG	454	68	70	92	50	132	42
Fomantis	GRASS 250	40	55	35	50	35	35
Lurantis	GRASS 480	70	105	90	80	90	45
Morelull	GRASS FAIRY	285	40	35	55	65	75	15
Shiinotic	GRASS FAIRY	405	60	45	80	90	100	30
Salandit	POISON FIRE	320	48	44	40	71	40	77
Salazzle	POISON FIRE	480	68	64	60	111	60	117
Stufful	NORMAL FIGHTING	340	70	75	50	45	50	50
Bewear	NORMAL FIGHTING	500	120	125	80	55	60	60
Bounsweet	GRASS 210	42	30	38	30	38	32
Steenee	GRASS 290	52	40	48	40	48	62
Tsareena	GRASS 510	72	120	98	50	98	72
Comfey	FAIRY 485	51	52	90	82	110	100
Oranguru	NORMAL PSYCHIC	490	90	60	80	90	110	60
Passimian	FIGHTING 490	100	120	90	40	60	80
Wimpod	BUG WATER	230	25	35	40	20	30	80
Golisopod	BUG WATER	530	75	125	140	60	90	40
Sandygast	GHOST GROUND	320	55	55	80	70	45	15
Palossand	GHOST GROUND	480	85	75	110	100	75	35
Pyukumuku	WATER 410	55	60	130	30	130	5
Type: Null	NORMAL 534	95	95	95	95	95	59
Silvally	NORMAL 570	95	95	95	95	95	95
Minior Meteor Form	ROCK FLYING	440	60	60	100	60	100	60 
Minior Core Form	ROCK FLYING	500	60	100	60	100	60	120
Komala	NORMAL 480	65	115	65	75	95	65
Turtonator	FIRE DRAGON	485	60	78	135	91	85	36
Togedemaru	ELECTRIC STEEL	435	65	98	63	40	73	96
Mimikyu	GHOST FAIRY	476	55	90	80	50	105	96
Bruxish	WATER PSYCHIC	475	68	105	70	70	70	92
Drampa	NORMAL DRAGON	485	78	60	85	135	91	36
Dhelmise	GHOST GRASS	517	70	131	100	86	90	40
Jangmo-o	DRAGON 300	45	55	65	45	45	45
Hakamo-o	DRAGON FIGHTING	420	55	75	90	65	70	65
Kommo-o	DRAGON FIGHTING	600	75	110	125	100	105	85
Tapu Koko	ELECTRIC FAIRY	570	70	115	85	95	75	130
Tapu Lele	PSYCHIC FAIRY	570	70	85	75	130	115	95
Tapu Bulu	GRASS FAIRY	570	70	130	115	85	95	75
Tapu Fini	WATER FAIRY	570	70	75	115	95	130	85
Cosmog	PSYCHIC 200	43	29	31	29	31	37
Cosmoem	PSYCHIC 400	43	29	131	29	131	37
Solgaleo	PSYCHIC STEEL	680	137	137	107	113	89	97
Lunala	PSYCHIC GHOST	680	137	113	89	137	107	97
Nihilego	ROCK POISON	570	109	53	47	127	131	103
Buzzwole	BUG FIGHTING	570	107	139	139	53	53	79
Pheromosa	BUG FIGHTING	570	71	137	37	137	37	151
Xurkitree	ELECTRIC 570	83	89	71	173	71	83
Celesteela	STEEL FLYING	570	97	101	103	107	101	61
Kartana	GRASS STEEL	570	59	181	131	59	31	109
Guzzlord	DARK DRAGON	570	223	101	53	97	53	43
Necrozma	PSYCHIC 600	97	107	101	127	89	79
Necrozma Dusk Mane Necrozma	PSYCHIC STEEL	680	97	157	127	113	109	77
Necrozma Dawn Wings Necrozma	PSYCHIC GHOST	680	97	113	109	157	127	77
Necrozma Ultra Necrozma	PSYCHIC DRAGON	754	97	167	97	167	97	129
Magearna	STEEL FAIRY	600	80	95	115	130	115	65
Marshadow	FIGHTING GHOST	600	90	125	80	90	90	125
Poipole	POISON 420	67	73	67	73	67	73
Naganadel	POISON DRAGON	540	73	73	73	127	73	121
Stakataka	ROCK STEEL	570	61	131	211	53	101	13
Blacephalon	FIRE GHOST	570	53	127	53	151	79	107
Zeraora	ELECTRIC 600	88	112	75	102	80	143
Meltan	STEEL 300	46	65	65	55	35	34
Melmetal	STEEL 600	135	143	143	80	65	34